<?xml version="1.0" standalone="no"?>
<!DOCTYPE svg PUBLIC "-//W3C//DTD SVG 1.1//EN" "http://www.w3.org/Graphics/SVG/1.1/DTD/svg11.dtd" >
<svg xmlns="http://www.w3.org/2000/svg">
<metadata>
This is a custom SVG font generated by IcoMoon.
<iconset grid="14"></iconset>
</metadata>
<defs>
<font id="aswSiteIcons" horiz-adv-x="448" >
<font-face units-per-em="448" ascent="384" descent="-64" />
<missing-glyph horiz-adv-x="448" />
<glyph unicode="&#x32;" d="M 382.368,1.632c-87.444-87.5-229.292-87.5-316.764,0 c-87.472,87.444-87.472,229.292,0,316.764s 229.32,87.472, 316.764,0C 469.868,230.924, 469.868,89.076, 382.368,1.632z M 364,272c0,15.484-12.516,28-28,28L 112,300 C 96.516,300, 84,287.484, 84,272l0-224 c0-15.484, 12.516-28, 28-28l 224,0 c 15.484,0, 28,12.516, 28,28L 364,272 z M 140,132l 168,0 l0-28 L 140,104 L 140,132 z M 140,244l 168,0 l0-28 L 140,216 L 140,244 z M 252,160L 140,160 L 140,188 l 112,0 L 252,160 z"  />
<glyph unicode="&#x34;" d="M 224-64c-123.704,0-224,100.296-224,224c0,123.704, 100.296,224, 224,224s 224-100.296, 224-224 C 448,36.296, 347.704-64, 224-64z M 323.848,219.388c-10.92,10.948-28.644,10.948-39.592,0L 205.072,140.204L 165.48,179.796 c-10.948,10.948-28.644,10.948-39.592,0s-10.948-28.644,0-39.592l 59.388-59.388c 10.948-10.948, 28.644-10.948, 39.592,0l 98.98,98.98 C 334.796,190.744, 334.796,208.468, 323.848,219.388z"  />
<glyph unicode="&#x31;" d="M 382.368,1.604c-87.444-87.472-229.292-87.472-316.764,0 c-87.5,87.5-87.5,229.292,0,316.792c 87.472,87.472, 229.32,87.472, 316.764,0C 469.868,230.896, 469.868,89.104, 382.368,1.604z M 336,244l-28,0 c0,30.912-25.088,56-56,56L 196,300 C 165.088,300, 140,274.912, 140,244L 112,244 C 81.088,244, 56,218.912, 56,188l 140,0 l 56,0 l 140,0 C 392,218.912, 366.912,244, 336,244z M 252,160l0-28 L 196,132 L 196,160 L 56,160 l0-84 c0-30.912, 25.088-56, 56-56l 224,0 c 30.912,0, 56,25.088, 56,56L 392,160 L 252,160 z M 224,244C 208.516,244, 196,228.516, 196,244s 12.516,28, 28,28s 28-12.516, 28-28S 239.484,244, 224,244z"  />
<glyph unicode="&#x33;" d="M 224,384C 100.296,384,0,283.704,0,160s 100.296-224, 224-224s 224,100.296, 224,224S 347.704,384, 224,384z M 205.042,100.208L 174.709,69.875
		l-91,91l 91,91l 30.334-30.334L 144.375,160.875L 205.042,100.208z M 280.291,69.875l-30.333,30.333L 310.626,160.875l-60.667,60.666L 280.291,251.875
		l 91-91L 280.291,69.875z"  />
<glyph unicode="&#x35;" d="M 224,384C 100.296,384,0,283.704,0,160s 100.296-224, 224-224s 224,100.296, 224,224S 347.704,384, 224,384z M 357.405,27.138
		c0-6.555-7.665-13.591-14.83-13.591c-7.204,0-16.979,3.945-16.979,13.591c0,0,0,189.349,0,193.312c0,3.944-0.093,4.296-4.519,6.611
		c-4.443,2.315-149.798,80.102-149.798,80.102c-2.24,0.871-11.998,3.463-25.052-3.388c-12.388-6.481-19.127-13.517-20.831-16.85
		l 151.428-84.546c 4.036-2.13, 6.518-6.036, 6.518-10.277l0-203.701 c0-4.389-2.629-8.388-6.851-10.461c-1.926-0.963-4.056-1.426-6.166-1.426
		c-2.481,0-5.018,0.611-7.147,1.945c-3.945,2.482-143.947,89.86-153.187,95.526c-4.426,2.74-9.628,8.277-9.758,12.407
		L 98.175,280.352c0,3.741-0.408,10.332, 5.351,19.479c 12.925,20.442, 57.92,43.662, 80.75,31.644l 166.611-85.897
		c 4.018-2.111, 6.517-6.037, 6.517-10.277L 357.405,27.138 z"  />
<glyph unicode="&#x20;" horiz-adv-x="224" />
<glyph class="hidden" unicode="&#xf000;" d="M0,384L 448 -64L0 -64 z" horiz-adv-x="0" />
</font></defs></svg>