{
	"$schema": "http://json-schema.org/draft-04/schema#",
	"type": "object",
	"properties": {
		"paging": {
			"type": "object",
			"properties": {
				"page": {
					"type": "integer"
				},
				"perPage": {
					"type": "integer"
				},
				"totalCount": {
					"type": "integer"
				}
			},
			"required": ["page",
			"perPage",
			"totalCount"]
		},
		"policies": {
			"type": "array",
			"items": [{
				"type": "object",
				"properties": {
					"id": {
						"type": "string"
					},
					"status": {
						"type": "string"
					},
					"clientId": {
						"type": "string"
					},
					"producer": {
						"type": "string"
					},
					"startProductId": {
						"type": "string"
					},
					"effectiveDate": {
						"type": "string"
					},
					"expirationDate": {
						"type": "string"
					},
					"lob": {
						"type": "string"
					},
					"policyNumber": {
						"type": "string"
					},
					"name": {
						"type": "string"
					},
					"links": {
						"type": "array",
						"items": {
							"type": "object",
							"properties": {
								"rel": {
									"type": "array",
									"items": {
										"type": "string"
									},
									"required": ["0"]
								},
								"href": {
									"type": "string"
								}
							},
							"required": ["rel",
							"href"]
						},
						"required": ["0"]
					},
					"action": 
					{
						"type":"object",
						"description":"Defines the starting URI actions for starting the product in a runtime process"										
					}
				},
				"required": ["id",
				"status",
				"effectiveDate",
				"expirationDate",
				"lob",
				"policyNumber",
				"name",
				"links"]
			},
			{
				"type": "object",
				"properties": {
					"id": {
						"type": "string"
					},
					"status": {
						"type": "string"
					},
					"effectiveDate": {
						"type": "string"
					},
					"expirationDate": {
						"type": "string"
					},
					"lob": {
						"type": "string"
					},
					"policyNumber": {
						"type": "string"
					},
					"name": {
						"type": "string"
					},
					"links": {
						"type": "array",
						"items": {
							"type": "object",
							"properties": {
								"rel": {
									"type": "array",
									"items": {
										"type": "string"
									},
									"required": ["0"]
								},
								"href": {
									"type": "string"
								}
							},
							"required": ["rel",
							"href"]
						},
						"required": ["0"]
					}
				},
				"required": ["id",
				"status",
				"effectiveDate",
				"expirationDate",
				"lob",
				"policyNumber",
				"name",
				"links"]
			},
			{
				"type": "object",
				"properties": {
					"id": {
						"type": "string"
					},
					"status": {
						"type": "string"
					},
					"effectiveDate": {
						"type": "string"
					},
					"expirationDate": {
						"type": "string"
					},
					"lob": {
						"type": "string"
					},
					"policyNumber": {
						"type": "string"
					},
					"name": {
						"type": "string"
					},
					"links": {
						"type": "array",
						"items": {
							"type": "object",
							"properties": {
								"rel": {
									"type": "array",
									"items": {
										"type": "string"
									},
									"required": ["0"]
								},
								"href": {
									"type": "string"
								}
							},
							"required": ["rel",
							"href"]
						},
						"required": ["0"]
					}
				},
				"required": ["id",
				"status",
				"effectiveDate",
				"expirationDate",
				"lob",
				"policyNumber",
				"name",
				"links"]
			}],
			"required": ["0",
			"1",
			"2"]
		},
		"links": {
			"type": "array",
			"items": [{
				"type": "object",
				"properties": {
					"rel": {
						"type": "array",
						"items": {
							"type": "string"
						},
						"required": ["0"]
					},
					"href": {
						"type": "string"
					}
				},
				"required": ["rel",
				"href"]
			},
			{
				"type": "object",
				"properties": {
					"rel": {
						"type": "array",
						"items": {
							"type": "string"
						},
						"required": ["0"]
					},
					"href": {
						"type": "string"
					}
				},
				"required": ["rel",
				"href"]
			}],
			"required": ["0",
			"1"]
		},
		"method":
				{
						"type":"object",		
						"properties":
						{
							"pageSet": 
							{
								"type":"string",
								"description":"Defines the page set the action is associated with"
							},
							"page": 
							{
								"type":"string",
								"description":"Defines the page the action is associated with"
							},
							"type": 
							{
								"type":"string",
								"description":"Defines the REST verb to be used when using the uniform resource identifier for the RESTful call against the API",	
								"enum": ["GET", "POST", "DELETE","PUT"]
							},
							"uri": 
							{
								"type":"string",			
								"description":"Defines a valid uniform resource identifier that can be used to make RESTful call against the API"
							}
						},
						"required":["type","uri"]
				},
				"action":
				{
					"type":"object",
					"properties":
					{
						"caption": 
						{
							"type":"string",
							"description":"A label for a button or link."
						},
						"contentType": 
						{
							"type":"string",
							"description":"Defines the type of content to be passed when using the uniform resource identifier during the RESTful call against the API",
							"enum": ["application/xml", "application/json", "application/multipart/form-data","multipart/form-data","text/xml"]
						},
						"description": 
						{
							"type":"string",
							"description":"Describes the purpose for the uniform resource identifier"
						},
						"id": 
						{
							"description":"Defines a unique identifier for the action",
							"type":"string"
						},
						"hidden":
						{
							"description":"Indicates whether the action is viewable",
							"type":"string",							
							"pattern":"0|1"
						},
						"method":
						{
							"type":"array",	
							"description":"Defines the group of methods for the action in a sequential processing order. Methods can be skipped if processing is not needed.",							
							"items":{"$ref": "#/definitions/method"}
						}
					},
					"required": ["contentType","description","id"]
				}
	},
	"required": ["paging",
	"policies"]
}